\relax 
\catcode `"\active 
\citation{abnt-nbr10520=2002}
\select@language{brazil}
\@writefile{toc}{\select@language{brazil}}
\@writefile{lof}{\select@language{brazil}}
\@writefile{lot}{\select@language{brazil}}
\@writefile{toc}{\contentsline {chapter}{LISTA DE FIGURAS}{}}
\citation{sigurdhsson}
\citation{fica}
\citation{sigurdhsson}
\citation{olston}
\@writefile{toc}{\contentsline {chapter}{\numberline {1}INTRODU\IeC {\c C}\IeC {\~A}O}{6}}
\@writefile{toc}{\contentsline {section}{\numberline {1.1}Contexto}{6}}
\citation{heritrix}
\citation{opensource}
\citation{IIPC}
\citation{sigurdhsson}
\@writefile{toc}{\contentsline {section}{\numberline {1.2}Objetivos}{7}}
\citation{olston}
\@writefile{toc}{\contentsline {chapter}{\numberline {2}CONTEXTUALIZA\IeC {\c C}\IeC {\~A}O E TRABALHOS RELACIONADOS}{9}}
\@writefile{toc}{\contentsline {section}{\numberline {2.1}Referencial Te\IeC {\'o}rico}{9}}
\@writefile{toc}{\contentsline {subsection}{\numberline {2.1.1}Web Crawler}{9}}
\citation{heritrix}
\@writefile{toc}{\contentsline {subsection}{\numberline {2.1.2}Heritrix}{10}}
\@writefile{lof}{\contentsline {figure}{\numberline {2.1}{\ignorespaces Arquitetura simplificada do Heritrix}}{10}}
\newlabel{fig:heritrix_arch}{{2.1}{10}}
\citation{cho2003}
\citation{yadav2008}
\citation{sigurdhsson}
\@writefile{toc}{\contentsline {subsection}{\numberline {2.1.3}Detec\IeC {\c c}\IeC {\~a}o de mudan\IeC {\c c}a da p\IeC {\'a}gina}{11}}
\@writefile{toc}{\contentsline {section}{\numberline {2.2}Trabalhos Relacionados}{11}}
\@writefile{toc}{\contentsline {subsection}{\numberline {2.2.1}Adaptative Revisiting with Heritrix}{11}}
\citation{sigurdhsson}
\@writefile{toc}{\contentsline {chapter}{\numberline {3}DESENVOLVIMENTO DO TRABALHO}{12}}
\@writefile{toc}{\contentsline {section}{\numberline {3.1}Decis\IeC {\~o}es de projeto}{12}}
\@writefile{toc}{\contentsline {subsection}{\numberline {3.1.1}Modifica\IeC {\c c}\IeC {\~o}es no Heritrix}{12}}
\@writefile{toc}{\contentsline {subsection}{\numberline {3.1.2}M\IeC {\'o}dulo externo ao Heritrix}{12}}
\@writefile{toc}{\contentsline {subsection}{\numberline {3.1.3}Ciclo de vida da p\IeC {\'a}gina}{13}}
\@writefile{lof}{\contentsline {figure}{\numberline {3.1}{\ignorespaces Ciclo de vida de uma p\IeC {\'a}gina Web}}{13}}
\newlabel{fig:ciclo_pag}{{3.1}{13}}
\@writefile{toc}{\contentsline {subsection}{\numberline {3.1.4}Fun\IeC {\c c}\IeC {\~a}o de escalonamento}{13}}
\@writefile{lot}{\contentsline {table}{\numberline {3.1}{\ignorespaces Escalonador de p\IeC {\'a}ginas}}{14}}
\newlabel{table:scheduler}{{3.1}{14}}
\@writefile{toc}{\contentsline {subsection}{\numberline {3.1.5}Detec\IeC {\c c}\IeC {\~a}o de mudan\IeC {\c c}a da p\IeC {\'a}gina}{14}}
\@writefile{lof}{\contentsline {figure}{\numberline {3.2}{\ignorespaces Mudan\IeC {\c c}as de rel\IeC {\'o}gio em uma mesma p\IeC {\'a}gina.}}{14}}
\newlabel{fig:page_clock}{{3.2}{14}}
\citation{yadav2008}
\@writefile{lof}{\contentsline {figure}{\numberline {3.3}{\ignorespaces Algoritmo de detec\IeC {\c c}\IeC {\~a}o de mudan\IeC {\c c}a na estrutura da p\IeC {\'a}gina.}}{15}}
\newlabel{fig:page_struct}{{3.3}{15}}
\citation{bard2007}
\@writefile{toc}{\contentsline {chapter}{\numberline {4}RESULTADOS E DISCUSS\IeC {\~A}O}{17}}
\@writefile{lot}{\contentsline {table}{\numberline {4.1}{\ignorespaces Valida\IeC {\c c}\IeC {\~a}o do algoritmo de detec\IeC {\c c}\IeC {\~a}o de mudan\IeC {\c c}a de p\IeC {\'a}gina}}{17}}
\newlabel{table:results}{{4.1}{17}}
\bibdata{abnt-options,monografia.bib}
\@writefile{toc}{\contentsline {chapter}{\numberline {5}CONCLUS\IeC {\~O}ES E TRABALHO FUTUROS}{18}}
\bibcite{sigurdhsson}{1}
\bibcite{sigurdhsson++EXPL}{Sigur{\dh }sson}
\bibcite{sigurdhsson++IMPL}{SIGUR{\dh }SSON}
\bibcite{sigurdhsson++YEAR}{2005}
\bibcite{fica}{2}
\bibcite{fica++EXPL}{Bidoki, Yazdani e Ghodsnia}
\bibcite{fica++IMPL}{BIDOKI; YAZDANI; GHODSNIA}
\bibcite{fica++YEAR}{2007}
\bibcite{olston}{3}
\bibcite{olston++EXPL}{Olston e Najork}
\bibcite{olston++IMPL}{OLSTON; NAJORK}
\bibcite{olston++YEAR}{2010}
\bibcite{heritrix}{4}
\bibcite{heritrix++EXPL}{Mohr et al.}
\bibcite{heritrix++IMPL}{MOHR et al.}
\bibcite{heritrix++YEAR}{2004}
\bibcite{opensource}{5}
\bibcite{opensource++EXPL}{Open\ldots  }
\bibcite{opensource++IMPL}{OPEN\ldots  }
\bibcite{opensource++YEAR}{}
\bibcite{IIPC}{6}
\bibcite{IIPC++EXPL}{International\ldots  }
\bibcite{IIPC++IMPL}{INTERNATIONAL\ldots  }
\bibcite{IIPC++YEAR}{}
\bibcite{cho2003}{7}
\bibcite{cho2003++EXPL}{Cho e Garcia-Molina}
\bibcite{cho2003++IMPL}{CHO; GARCIA-MOLINA}
\bibcite{cho2003++YEAR}{2003}
\bibcite{yadav2008}{8}
\bibcite{yadav2008++EXPL}{Yadav, Sharma e Gupta}
\bibcite{yadav2008++IMPL}{YADAV; SHARMA; GUPTA}
\bibcite{yadav2008++YEAR}{2008}
\bibcite{bard2007}{9}
\bibcite{bard2007++EXPL}{Bard}
\bibcite{bard2007++IMPL}{BARD}
\bibcite{bard2007++YEAR}{2007}
\bibstyle{abnt-num}
\@writefile{toc}{\contentsline {chapter}{Refer\^encias Bibliogr\'aficas}{19}}
